{
	"info": {
		"_postman_id": "0d9eb181-5cb1-4e5d-a9f5-5a1490e29f56",
		"name": "Hermes",
		"description": "Sample requests for the assignment of newmotion",
		"schema": "https://schema.getpostman.com/json/collection/v2.1.0/collection.json"
	},
	"item": [
		{
			"name": "Create Tariff",
			"request": {
				"method": "POST",
				"header": [
					{
						"key": "Content-Type",
						"value": "application/json",
						"type": "text"
					},
					{
						"key": "Accept",
						"value": "application/json",
						"type": "text"
					},
					{
						"key": "Authorization",
						"value": "Basic QWRtaW46MTIzNA==",
						"type": "text"
					}
				],
				"body": {
					"mode": "raw",
					"raw": "{\n\t\"baseFeePerkWh\": 2,\n\t\"parkingFeePerHour\": 1,\n\t\"serviceFeePercentage\": 0.3,\n\t\"startsAt\": \"2019-01-28T23:27:00+01:00\"\n}"
				},
				"url": {
					"raw": "localhost:8080/billing/tariff",
					"host": [
						"localhost"
					],
					"port": "8080",
					"path": [
						"billing",
						"tariff"
					]
				}
			},
			"response": []
		},
		{
			"name": "Wrong tariff creation",
			"request": {
				"method": "POST",
				"header": [
					{
						"key": "Accept",
						"value": "application/json",
						"type": "text"
					},
					{
						"key": "Content-Type",
						"value": "application/json",
						"type": "text"
					},
					{
						"key": "Authorization",
						"value": "Basic QWRtaW46MTIzNA==",
						"type": "text"
					}
				],
				"body": {
					"mode": "raw",
					"raw": "{\n\t\"baseFeePerkWh\": -1,\n\t\"parkingFeePerHour\": -2,\n\t\"serviceFeePercentage\": 0.0,\n\t\"startsAt\": \"2019-01-27T20:25:50+01:00\"\n}"
				},
				"url": {
					"raw": "localhost:8080/billing/tariff",
					"host": [
						"localhost"
					],
					"port": "8080",
					"path": [
						"billing",
						"tariff"
					]
				}
			},
			"response": [
				{
					"name": "Wrong tariff creation",
					"originalRequest": {
						"method": "POST",
						"header": [
							{
								"key": "Accept",
								"value": "application/json",
								"type": "text"
							},
							{
								"key": "Content-Type",
								"value": "application/json",
								"type": "text"
							}
						],
						"body": {
							"mode": "raw",
							"raw": "{\n\t\"baseFeePerkWh\": -1,\n\t\"parkingFeePerHour\": -2,\n\t\"serviceFeePercentage\": 0.0,\n\t\"startsAt\": \"2019-01-27T20:25:50+01:00\"\n}"
						},
						"url": {
							"raw": "localhost:8080/billing/tariff",
							"host": [
								"localhost"
							],
							"port": "8080",
							"path": [
								"billing",
								"tariff"
							]
						}
					},
					"status": "Bad Request",
					"code": 400,
					"_postman_previewlanguage": "json",
					"header": [
						{
							"key": "Server",
							"value": "akka-http/10.1.7"
						},
						{
							"key": "Date",
							"value": "Sun, 27 Jan 2019 19:30:47 GMT"
						},
						{
							"key": "Content-Type",
							"value": "application/json"
						},
						{
							"key": "Content-Length",
							"value": "165"
						}
					],
					"cookie": [],
					"body": "{\n    \"errors\": [\n        \"Base fee must be >= 0\",\n        \"Service fee percentage must be between 0.0 (exclusive) and 0.5\",\n        \"Base fee must be >= 0\",\n        \"Starting date should be in the future\"\n    ]\n}"
				}
			]
		},
		{
			"name": "CreateChargeSession",
			"request": {
				"method": "POST",
				"header": [
					{
						"key": "Accept",
						"value": "application/json",
						"type": "text"
					},
					{
						"key": "Content-Type",
						"value": "application/json",
						"type": "text"
					}
				],
				"body": {
					"mode": "raw",
					"raw": "{\n\t\"userId\": 1,\n\t\"start\": \"2019-01-28T23:28:00+01:00\",\n\t\"end\": \"2019-01-28T23:29:00+01:00\"\n}"
				},
				"url": {
					"raw": "localhost:8080/billing/session",
					"host": [
						"localhost"
					],
					"port": "8080",
					"path": [
						"billing",
						"session"
					]
				}
			},
			"response": []
		},
		{
			"name": "Get Sessions",
			"request": {
				"method": "GET",
				"header": [
					{
						"key": "Accept",
						"value": "text/csv",
						"type": "text"
					},
					{
						"key": "Content-Type",
						"value": "application/json",
						"type": "text"
					}
				],
				"body": {
					"mode": "raw",
					"raw": ""
				},
				"url": {
					"raw": "localhost:8080/user/42/sessions",
					"host": [
						"localhost"
					],
					"port": "8080",
					"path": [
						"user",
						"42",
						"sessions"
					]
				}
			},
			"response": []
		}
	],
	"event": [
		{
			"listen": "prerequest",
			"script": {
				"id": "4ce25df4-b3b2-4493-baef-0ac30cffb03e",
				"type": "text/javascript",
				"exec": [
					""
				]
			}
		},
		{
			"listen": "test",
			"script": {
				"id": "04047bc2-bcdc-4da6-955e-90ff00967d76",
				"type": "text/javascript",
				"exec": [
					"pm.test(\"response is ok\", function () {",
					"    pm.response.to.have.status(200);",
					"});"
				]
			}
		}
	]
}